Literature Review
…
Warning in .recacheSubclasses(def@className, def, env): undefined subclass
"unpackedMatrix" of class "replValueSp"; definition not updated

Warning: package 'plotly' was built under R version 4.2.3

Our data.

# t_df <- read_csv("your_lit_review_file.csv", show_col_types=FALSE)
assets_pubs <- "../1-swf-knowledge.base/assets/data/raw" 
t_df <- as_tibble(read_csv(paste(assets_pubs,"230321_research_rabbit_scaling_pubs.csv",sep='/'),show_col_types = FALSE))
t_df

# A tibble: 104 × 8
   DOI                          PMID arXiv…¹ Title Abstr…² Authors Journal  Year
   <chr>                       <dbl> <lgl>   <chr> <chr>   <chr>   <chr>   <dbl>
 1 10.1002/eco.2390          NA      NA      Drou… Interm… Romain… Ecohyd…  2021
 2 10.1007/s10661-013-3247-7  2.38e7 NA      Biog… The Bo… Norber… Enviro…  2013
 3 10.1002/hyp.14514         NA      NA      Grou… Stream… Jacob … Hydrol…  2022
 4 10.1007/s10533-018-0426-1 NA      NA      Hydr… Headwa… Erin C… Biogeo…  2018
 5 10.5194/hess-2020-10      NA      NA      Eval… Abstra… Songya… Hydrol…  2020
 6 10.1111/j.1365-2427.2009… NA      NA      Emer… SUMMAR… Scott … Freshw…  2010
 7 10.1029/2021jg006654      NA      NA      Spat… While … Kyongh… Journa…  2022
 8 10.1038/s41467-022-28630…  3.53e7 NA      Supe… River … Wilfre… Nature…  2022
 9 10.1126/science.284.5420…  1.04e7 NA      The … Fracta… Geoffr… Science  1999
10 10.1029/2022wr034062      NA      NA      A Ne… <NA>    Pier L… Water …  2023
# … with 94 more rows, and abbreviated variable names ¹​`arXiv ID`, ²​Abstract
…
t_df_c <- t_df_c%>% 
  mutate(id = seq(from =1, to= nrow(t_df_c),by=1)) %>% 
  mutate(id = factor(id))

t_df_c

# A tibble: 96 × 7
   title                             abstr…¹ authors journal  year abstr…² id   
   <chr>                             <chr>   <chr>   <chr>   <dbl>   <int> <fct>
 1 Drought in intermittent river an… Interm… Romain… Ecohyd…  2021    1558 1    
 2 Biogeochemical patterns in a riv… The Bo… Norber… Enviro…  2013    1768 2    
 3 Groundwater‐stream connectivity … Stream… Jacob … Hydrol…  2022    1685 3    
 4 Hydrologic and biogeochemical dr… Headwa… Erin C… Biogeo…  2018    1278 4    
 5 Evaluating a landscape-scale dai… Abstra… Songya… Hydrol…  2020    2091 5    
 6 Emerging concepts in temporary‐r… SUMMAR… Scott … Freshw…  2010    2515 6    
 7 Spatial microbial respiration va… While … Kyongh… Journa…  2022    1745 7    
 8 Superlinear scaling of riverine … River … Wilfre… Nature…  2022    1341 8    
 9 The Fourth Dimension of Life: Fr… Fracta… Geoffr… Science  1999     657 9    
10 Toward a metabolic theory of eco… Metabo… James … Ecology  2004    1351 10   
# … with 86 more rows, and abbreviated variable names ¹​abstract,
#   ²​abstract_lenght
…
# Combining our original data frames for text analysis

t_df_c_m <- t_df_c %>% 
  select(year,authors,journal)

pub_comp_m <- select(pub_comp_c,!!paste0(pub_comp))

pub_dat <- as_tibble(cbind(pub_comp_m,t_df_c_m))

pub_dat

# A tibble: 96 × 4
   title                                                    year authors journal
   <chr>                                                   <dbl> <chr>   <chr>  
 1 drought intermittent river ephemeral stream network      2021 Romain… Ecohyd…
 2 biogeochemical pattern river network land gradient       2013 Norber… Enviro…
 3 groundwater stream connectivity minute month united ba…  2022 Jacob … Hydrol…
 4 hydrologic biogeochemical driver dissolved organic car…  2018 Erin C… Biogeo…
 5 evaluating landscape scale daily water balance model s…  2020 Songya… Hydrol…
 6 emerging concept temporary river ecology                 2010 Scott … Freshw…
 7 spatial microbial respiration variation hyporheic zone…  2022 Kyongh… Journa…
 8 superlinear scaling riverine biogeochemical function w…  2022 Wilfre… Nature…
 9 fourth dimension life fractal geometry allometric scal…  1999 Geoffr… Science
10 metabolic theory ecology                                 2004 James … Ecology
# … with 86 more rows
…
